<svg xmlns="http://www.w3.org/2000/svg" width="13.913" height="7.955" viewBox="0 0 13.913 7.955">
  <path id="Icon_ionic-ios-arrow-down" data-name="Icon ionic-ios-arrow-down" d="M13.141,16.8,7.881,11.539a.99.99,0,0,0-1.4,0,1,1,0,0,0,0,1.408l5.961,5.965a.992.992,0,0,0,1.371.029l6-5.99a.994.994,0,1,0-1.4-1.408Z" transform="translate(-6.188 -11.246)" fill="#0063e5"/>
</svg>
