<svg xmlns="http://www.w3.org/2000/svg" width="23" height="23" viewBox="0 0 23 23">
  <g id="Groupe_1111" data-name="Groupe 1111" transform="translate(-1088 -696)">
    <g id="Ellipse_14" data-name="Ellipse 14" transform="translate(1088 696)" fill="none" stroke="#a4a4a4" stroke-width="1">
      <circle cx="11.5" cy="11.5" r="11.5" stroke="none"/>
      <circle cx="11.5" cy="11.5" r="11" fill="none"/>
    </g>
    <g id="more_horiz" transform="translate(1093 706)">
      <path id="m" d="M10.508,2.851a1.606,1.606,0,0,1,0-2.344,1.607,1.607,0,0,1,2.344,0,1.606,1.606,0,0,1,0,2.344,1.605,1.605,0,0,1-2.344,0Zm-5,0a1.606,1.606,0,0,1,0-2.344,1.606,1.606,0,0,1,2.344,0,1.606,1.606,0,0,1,0,2.344,1.6,1.6,0,0,1-2.344,0Zm-5,0a1.606,1.606,0,0,1,0-2.344,1.606,1.606,0,0,1,2.344,0,1.6,1.6,0,0,1,0,2.344,1.6,1.6,0,0,1-2.344,0Z" fill="#a4a4a4"/>
    </g>
  </g>
</svg>
